\select@language {english}
\addvspace {10\p@ }
\addvspace {10\p@ }
\addvspace {10\p@ }
\contentsline {figure}{\numberline {3.1}{\ignorespaces Title of Figure}}{5}{figure.caption.4}
\addvspace {10\p@ }
\addvspace {10\p@ }
\addvspace {10\p@ }
\contentsline {figure}{\numberline {1}{\ignorespaces Title of Figure}}{15}{figure.caption.8}
